…
A tibble, or tbl_df, is a modern reimagining of the data frame, keeping what has been proven to be effective, and throwing out what is not. To convert a data frame to a tibble, we can use the function as.tibble(df) where df is a data frame. We will convert the HANES data frame into tibble and use the tibble from now on.

  # Load the tidyverse library
  library(tidyverse)
  # Convert HANES data frame into a tibble and observe it
  HANES_TIB <- as.tibble(HANES)
  HANES_TIB

## # A tibble: 1,112 x 23
##        KEY GENDER SPAGE AGEGROUP     HSQ_1 UCREATININE UALBUMIN
##  *  <fctr> <fctr> <int>   <fctr>    <fctr>       <int>    <dbl>
##  1 134040A      M    29    20-39 Very Good         105    0.707
##  2 134460B      M    28    20-39 Very Good          53    1.000
##  3 134490A      M    27    20-39 Very Good         314    8.000
##  4 134620A      M    24    20-39 Excellent         105    4.000
##  5 134670A      M    30    20-39 Excellent         163    3.000
##  6 135210B      M    26    20-39      Good         150    2.000
##  7 135420A      M    31    20-39 Excellent          46    2.000
##  8 135740A      M    32    20-39 Very Good          36    0.707
##  9 136020A      M    34    20-39 Excellent         177    4.000
## 10 136250A      M    32    20-39      Good         156    3.000
## # ... with 1,102 more rows, and 16 more variables: UACR <dbl>,
## #   MERCURYU <dbl>, DX_DBTS <fctr>, A1C <dbl>, CADMIUM <dbl>, LEAD <dbl>,
## #   MERCURYTOTALBLOOD <dbl>, HDL <int>, CHOLESTEROLTOTAL <int>,
## #   GLUCOSESI <dbl>, CREATININESI <dbl>, CREATININE <dbl>,
## #   TRIGLYCERIDE <int>, GLUCOSE <int>, COTININE <dbl>, LDLESTIMATE <int>
…
