…
  # Find the count of insurance and marital status
  insurance_marital.status <- MIMIC3_ADM %>% 
    group_by(insurance, marital_status) %>% count()
  insurance_marital.status
  # Find the number of people with medicaid
  folks_with_medicaid <- MIMIC3_ADM %>% 
    filter(insurance == "Medicaid") %>% count() 
  folks_with_medicaid$n
  # Group by their ethnicities
  MIMIC3_ADM %>% 
    filter(insurance =="Medicaid" & marital_status == "SEPARATED") %>% 
    group_by(ethnicity) %>% count()

## # A tibble: 34 x 3
## # Groups:   insurance, marital_status [34]
##     insurance marital_status     n
##        <fctr>         <fctr> <int>
##  1 Government       DIVORCED    13
##  2 Government        MARRIED    33
##  3 Government      SEPARATED     3
##  4 Government         SINGLE    93
##  5 Government        WIDOWED     8
##  6 Government             NA    31
##  7   Medicaid       DIVORCED    38
##  8   Medicaid        MARRIED   100
##  9   Medicaid      SEPARATED    12
## 10   Medicaid         SINGLE   309
## # ... with 24 more rows
…
