…
  # Load the tidyverse library
  library(tidyverse)

To subset a variable name in a pipe, we have to use a special placeholder . when we use tibble.

  # Convert HANES to tibble
  HANES_tibble <- as.tibble(HANES) 
  # Subset A1C variable from the tibble HANES
  HANES_A1C <- HANES_tibble %>% .$A1C 
  # You can set the print options for the 
  # number of lines to be printed
  options(tibble.print_min = 7)
  as.tibble(HANES_A1C)

## # A tibble: 1,112 x 1
##   value
##   <dbl>
## 1   5.0
## 2   5.2
## 3   4.8
## 4   5.1
## 5   4.3
## 6   5.2
## 7   4.8
## # ... with 1,105 more rows

Reading files and parsing

Comma Seperated Values (CSV) are the most common types of files. We can read a .csv file through the function read_csv().

  # Read the HANES orginal csv file 
  URL_text_1 <- "https://raw.githubusercontent.com/kannan-kasthuri/kannan-kasthuri.github.io"
  URL_text_2 <- "/master/Datasets/HANES/HANES.original.csv"
  # Paste it to constitute a single URL 
  URL <- paste(URL_text_1,URL_text_2, sep="")
  HANES_original <- read.csv(URL)
  # and convert into tibble
  as.tibble(HANES_original)

## # A tibble: 1,527 x 704
##       KEY BOROSTRATUM PSUNEST HHNEST  CAPI_WT  EXAM_WT BLOOD_WT URINE_WT
## *  <fctr>       <int>   <int>  <int>    <dbl>    <dbl>    <dbl>    <dbl>
## 1 134040A           1      80 134040 7124.351 7421.006 8529.362 7811.598
## 2 134240B           1      82 134240 3946.733 4045.217 4696.925 4174.914
## 3 134460B           1      83 134460 3795.282 3859.116 4262.829 3854.439
## 4 134490A           1      83 134490 3946.733 4045.217 4696.925 4174.914
## 5 134620A           1      84 134620 3795.282 3859.116 4262.829 3854.439
## 6 134670A           1      84 134670 3795.282 3859.116 4262.829 3854.439
## 7 135210B           1      86 135210 3946.733 4045.217 4696.925 4174.914
## # ... with 1,520 more rows, and 696 more variables: SALIVA_WT <dbl>,
## #   ACASI_WT <dbl>, WT_CAPI <int>, WT_EXAM <int>, WT_BLOOD <int>,
## #   WT_URINE <int>, WT_SALIVA <int>, WT_ACASI <int>, LAQ1 <int>,
## #   IS_PROXY <int>, GENDER <int>, SPAGE <int>, AGEGROUP <int>,
## #   AGEGRP3C <int>, AGEGRP4C <int>, AGEGRP5C <int>, DMQ_A <int>,
## #   DMQ_1 <int>, EDUCATION <int>, EDU4CAT <int>, EDU3CAT <int>, EDU <int>,
## #   DMQ_2 <int>, MARITAL <int>, MARITALMOD <int>, DMQ_3 <int>,
## #   DMQ_5 <fctr>, DMQ_5A <fctr>, US_BORN <int>, BORN <int>, DMQ_6 <fctr>,
## #   DMQ_7MON <int>, DMQ_7YEAR <int>, DMQ_8MON <int>, DMQ_8YEAR <int>,
…
##  logi [1:3] TRUE FALSE NA

##  int [1:1527] 2 3 3 3 3 3 3 3 3 3 ...

##  Date[1:2], format: "2010-01-01" "1979-10-14"

We can specify which education categories should be treated as NA. For instance, if we wish to denote all high schoolers (category 2) as NA:

  # Replace EDUCATION variable with high schoolers as NA
  as.tibble(parse_integer(HANES_original$EDUCATION, na = "2"))

## # A tibble: 1,527 x 1
##   value
##   <int>
## 1    NA
## 2     3
## 3     3
## 4     3
## 5     3
## 6     3
## 7     3
## # ... with 1,520 more rows
…
## Warning: 1209 parsing failures.
## row # A tibble: 5 x 4 col     row   col           expected actual expected   <int> <int>              <chr>  <chr> actual 1     1    NA 1/0/T/F/TRUE/FALSE      2 row 2     2    NA 1/0/T/F/TRUE/FALSE      3 col 3     3    NA 1/0/T/F/TRUE/FALSE      3 expected 4     4    NA 1/0/T/F/TRUE/FALSE      3 actual 5     5    NA 1/0/T/F/TRUE/FALSE      3
## ... ................. ... ....................................... ........ ....................................... ...... ....................................... ... ....................................... ... ....................................... ........ ....................................... ...... .......................................
## See problems(...) for more details.

which can be output into a tibble format using the problems() function:

  # Parse EDUCATION as a logical when it is a number
  x <- parse_logical(HANES_original$EDUCATION)
  # and output the result as a nice tibble
  problems(x)

## # A tibble: 1,209 x 4
##     row   col           expected actual
##   <int> <int>              <chr>  <chr>
## 1     1    NA 1/0/T/F/TRUE/FALSE      2
## 2     2    NA 1/0/T/F/TRUE/FALSE      3
## 3     3    NA 1/0/T/F/TRUE/FALSE      3
## 4     4    NA 1/0/T/F/TRUE/FALSE      3
## 5     5    NA 1/0/T/F/TRUE/FALSE      3
## 6     6    NA 1/0/T/F/TRUE/FALSE      3
## 7     7    NA 1/0/T/F/TRUE/FALSE      3
## # ... with 1,202 more rows
…
## [1] "2150-06-29 15:00:00 UTC" "2142-04-08 14:46:00 UTC"
## [3] "2196-02-04 17:48:00 UTC" "2196-04-17 13:42:00 UTC"
## [5] "2162-03-10 13:15:00 UTC" "2167-07-30 15:24:00 UTC"

Sometimes we may just want to work with the dates given the variable in date-time format. We can use as_date() function to extract just the date.

  # Load the lubridate library
  library(lubridate)
  # Since discharge time has both date and time attributes we use as_date() to extract the date
  MIMIC3_ADM$dischtime <- as_date(MIMIC3_ADM$dischtime)
  # We can then select only the variables of interest
  MIMIC3_adm_dis <- select(MIMIC3_ADM,hadm_id, admittime,dischtime)
  as.tibble(MIMIC3_adm_dis)

## # A tibble: 5,770 x 3
##   hadm_id  admittime  dischtime
## *   <int>     <date>     <date>
## 1  110641 2150-06-24 2150-06-29
## 2  158569 2142-04-01 2142-04-08
## 3  120969 2196-02-02 2196-02-04
## 4  166401 2196-04-14 2196-04-17
## 5  116630 2162-03-02 2162-03-10
## 6  112077 2167-07-25 2167-07-30
## 7  190243 2146-04-06 2146-04-10
## # ... with 5,763 more rows
…
periods, which represent human units like weeks and months.

intervals, which represent a starting and ending point.

In R, when we subtract two dates, we get a difftime object:

  # Load the lubridate library
  library(lubridate)
  # Subtract discharge time minus admission time
  MIMIC3_adm_dis <- MIMIC3_adm_dis %>% 
    mutate(time_spent = ymd(MIMIC3_adm_dis$dischtime) - ymd(MIMIC3_adm_dis$admittime))
  # And display as tibble
  as.tibble(MIMIC3_adm_dis)

## # A tibble: 5,770 x 4
##   hadm_id  admittime  dischtime time_spent
##     <int>     <date>     <date>     <time>
## 1  110641 2150-06-24 2150-06-29     5 days
## 2  158569 2142-04-01 2142-04-08     7 days
## 3  120969 2196-02-02 2196-02-04     2 days
## 4  166401 2196-04-14 2196-04-17     3 days
## 5  116630 2162-03-02 2162-03-10     8 days
## 6  112077 2167-07-25 2167-07-30     5 days
## 7  190243 2146-04-06 2146-04-10     4 days
## # ... with 5,763 more rows
…
time difference can be little painful to work with when we are interested in durations. The library lubridate provides an alternative which always uses seconds: the duration. We can convert our variable into duration by using the function as.duration().

  # Convert the time spent as duration (in seconds)
  MIMIC3_adm_dis <- MIMIC3_adm_dis %>%
                    mutate(time_spent_in_seconds = as.duration(time_spent))
  as.tibble(MIMIC3_adm_dis)

## # A tibble: 5,770 x 5
##   hadm_id  admittime  dischtime time_spent time_spent_in_seconds
##     <int>     <date>     <date>     <time>        <S4: Duration>
## 1  110641 2150-06-24 2150-06-29     5 days     432000s (~5 days)
## 2  158569 2142-04-01 2142-04-08     7 days    604800s (~1 weeks)
## 3  120969 2196-02-02 2196-02-04     2 days     172800s (~2 days)
## 4  166401 2196-04-14 2196-04-17     3 days     259200s (~3 days)
## 5  116630 2162-03-02 2162-03-10     8 days 691200s (~1.14 weeks)
## 6  112077 2167-07-25 2167-07-30     5 days     432000s (~5 days)
## 7  190243 2146-04-06 2146-04-10     4 days     345600s (~4 days)
## # ... with 5,763 more rows
…
## [1] "21d 0H 0M 0S"

## [1] "1y 0m 0d 0H 0M 0S"

You can add and multiply periods and add them to dates. Thus we can subtract a 200 year time peroid from our admission and discharge times:

  # Makes times compatible with our times subtracting 200 years
  MIMIC3_adm_dis <- MIMIC3_adm_dis %>%
                    mutate(admission_time_minus_200 = ymd(admittime)-years(200),
                    dischtime_time_minus_200 = ymd(dischtime)-years(200)) %>% 
                    select(admission_time_minus_200,dischtime_time_minus_200, everything())
  as.tibble(MIMIC3_adm_dis)

## # A tibble: 5,770 x 7
##   admission_time_minus_200 dischtime_time_minus_200 time_spent hadm_id
##                     <date>                   <date>     <time>   <int>
## 1               1950-06-24               1950-06-29     5 days  110641
## 2               1942-04-01               1942-04-08     7 days  158569
## 3               1996-02-02               1996-02-04     2 days  120969
## 4               1996-04-14               1996-04-17     3 days  166401
## 5               1962-03-02               1962-03-10     8 days  116630
## 6               1967-07-25               1967-07-30     5 days  112077
## 7               1946-04-06               1946-04-10     4 days  190243
## # ... with 5,763 more rows, and 3 more variables: admittime <date>,
## #   dischtime <date>, time_spent_in_seconds <S4: Duration>
…
## [1] 365

 Classwork/Homework: Read section 16.5 Date-time components in the book R for Data Science.

Tidying data

Same kind of data can be present in multiple columns that may denote a single variable. For example, consider MIMIC3 admissions table. There are two variables - edregtime and edouttime (emergency department registration time and emergency department out time, respectively) that represents one variable: time stamp in emergency, a larger class of variable.

  # Select subject_id, hadm_id, edregtime and edouttime variables
  MIMIC3_ADM_tibble <- MIMIC3_ADM %>% select(subject_id,hadm_id,edregtime,edouttime) %>% na.omit()
  as.tibble(MIMIC3_ADM_tibble)

## # A tibble: 3,065 x 4
##   subject_id hadm_id           edregtime           edouttime
## *      <int>   <int>              <fctr>              <fctr>
## 1         84  166401 2196-04-13 22:23:00 2196-04-14 04:31:00
## 2         85  112077 2167-07-25 16:37:00 2167-07-25 20:46:00
## 3         88  123010 2111-08-29 01:44:00 2111-08-29 02:28:00
## 4         91  121205 2177-04-22 21:02:00 2177-04-23 04:03:00
## 5         94  183686 2176-02-25 10:35:00 2176-02-25 18:14:00
## 6         94  140037 2176-09-02 09:54:00 2176-09-02 17:56:00
## 7         95  160891 2157-12-25 12:24:00 2157-12-25 16:56:00
## # ... with 3,058 more rows
…
The set of columns that represent sub-classification/sub-variables. In this example, those are the columns edregtime and edouttime

The name of a single variable that represents a larger class. This is called a key, and here it is time stamp in emergency. Lets call this variable EdTimeStamp.

The values that are present in the cells corresponding to the sub-variables. Here its the time stamp when registering and when out of the emergency department. Lets call this variable time

Once we have these parameters, we can gather data:

  # Gather edregtime and edouttime, to form variable "EdTimeStamp" with
  # value "time"
  MIMIC3_ADM_gather <- MIMIC3_ADM_tibble %>% 
    gather(`edregtime`, `edouttime`, key = "EdTimeStamp", value = "time")
  as.tibble(MIMIC3_ADM_gather)

## # A tibble: 6,130 x 4
##   subject_id hadm_id EdTimeStamp                time
##        <int>   <int>       <chr>               <chr>
## 1         84  166401   edregtime 2196-04-13 22:23:00
## 2         85  112077   edregtime 2167-07-25 16:37:00
## 3         88  123010   edregtime 2111-08-29 01:44:00
## 4         91  121205   edregtime 2177-04-22 21:02:00
## 5         94  183686   edregtime 2176-02-25 10:35:00
## 6         94  140037   edregtime 2176-09-02 09:54:00
## 7         95  160891   edregtime 2157-12-25 12:24:00
## # ... with 6,123 more rows
…
TRANSFER FROM SKILLED NUR

TRSF WITHIN THIS FACILITY

HMO REFERRAL/SICK

PHYS REFERRAL/NORMAL DELI

  # Separate admission_location information
  MIMIC3_ADM_LOC_SEP <- MIMIC3_ADM %>% select(admission_location) %>% 
    separate(admission_location, into = c("Info1", "Info2"), sep = "/", convert = FALSE)
  as.tibble(MIMIC3_ADM_LOC_SEP)

## # A tibble: 5,770 x 2
##                  Info1       Info2
## *                <chr>       <chr>
## 1        PHYS REFERRAL NORMAL DELI
## 2   TRANSFER FROM HOSP      EXTRAM
## 3        PHYS REFERRAL NORMAL DELI
## 4 EMERGENCY ROOM ADMIT        <NA>
## 5      CLINIC REFERRAL   PREMATURE
## 6      CLINIC REFERRAL   PREMATURE
## 7        PHYS REFERRAL NORMAL DELI
## # ... with 5,763 more rows

By default seperate() would coerce into charector vectors even if we seperate numerical variables. To retain numerical type, we have to set convert = TRUE argument.

unite() is the inverse of separate(): it combines multiple columns into a single column. For example, in the above data set we can unite hospital admission id hadm_id and the admission type admission_type to tie a reason why the patient got admitted. By default the unite will use underscore. This can be overridden by using a seperator argument. This is done as follows:

  # Unite hadm_id and admission_type
  MIMIC3_ADM_LOC_UNITE <- MIMIC3_ADM %>% select(subject_id, hadm_id, admission_type) %>% 
    unite(reason, hadm_id, admission_type, sep=":")
  as.tibble(MIMIC3_ADM_LOC_UNITE)

## # A tibble: 5,770 x 2
##   subject_id           reason
## *      <int>            <chr>
## 1         82   110641:NEWBORN
## 2         83    158569:URGENT
## 3         84  120969:ELECTIVE
## 4         84 166401:EMERGENCY
## 5         85 116630:EMERGENCY
## 6         85 112077:EMERGENCY
## 7         86  190243:ELECTIVE
## # ... with 5,763 more rows
…
Case study: TB data from WHO

The following case study illustrates the typical process involved in tidying up real world data. The data comes from the 2014 World Health Organization Global Tuberculosis Report, which can be downloaded from WHO TB Data. The data is a part of tidyverse package, so you dont have to download it.

Just querying the data results as follows:

  # Query WHO TB data
  who

## # A tibble: 7,240 x 60
##       country  iso2  iso3  year new_sp_m014 new_sp_m1524 new_sp_m2534
##         <chr> <chr> <chr> <int>       <int>        <int>        <int>
## 1 Afghanistan    AF   AFG  1980          NA           NA           NA
## 2 Afghanistan    AF   AFG  1981          NA           NA           NA
## 3 Afghanistan    AF   AFG  1982          NA           NA           NA
## 4 Afghanistan    AF   AFG  1983          NA           NA           NA
## 5 Afghanistan    AF   AFG  1984          NA           NA           NA
## 6 Afghanistan    AF   AFG  1985          NA           NA           NA
## 7 Afghanistan    AF   AFG  1986          NA           NA           NA
## # ... with 7,233 more rows, and 53 more variables: new_sp_m3544 <int>,
## #   new_sp_m4554 <int>, new_sp_m5564 <int>, new_sp_m65 <int>,
## #   new_sp_f014 <int>, new_sp_f1524 <int>, new_sp_f2534 <int>,
## #   new_sp_f3544 <int>, new_sp_f4554 <int>, new_sp_f5564 <int>,
## #   new_sp_f65 <int>, new_sn_m014 <int>, new_sn_m1524 <int>,
## #   new_sn_m2534 <int>, new_sn_m3544 <int>, new_sn_m4554 <int>,
## #   new_sn_m5564 <int>, new_sn_m65 <int>, new_sn_f014 <int>,
## #   new_sn_f1524 <int>, new_sn_f2534 <int>, new_sn_f3544 <int>,
## #   new_sn_f4554 <int>, new_sn_f5564 <int>, new_sn_f65 <int>,
…
  # Verify if hadm_id is a primary key
  MIMIC3_ADM %>% 
    count(hadm_id) %>%
    filter(n > 1)

## # A tibble: 0 x 2
## # ... with 2 variables: hadm_id <int>, n <int>

  # Verify if subject_id is a primary key
  is_subject_id_key <- MIMIC3_ADM %>% 
                        count(subject_id) %>%
                        filter(n > 1)
  as.tibble(is_subject_id_key)

## # A tibble: 729 x 2
##   subject_id     n
##        <int> <int>
## 1         84     2
## 2         85     2
## 3         94     2
## 4        103     2
## 5        105     2
## 6        107     3
## 7        109     8
## # ... with 722 more rows
…
The following code computes the inner join of admissionas and input events cv table:

  # Inner join of admissions table and input events (cv) table using the key "hadm_id"
  MIMIC_ADM_INE_inner_join <- MIMIC3_ADM %>% 
                                inner_join(MIMIC3_INE, by = "hadm_id")
                        
  as.tibble(MIMIC_ADM_INE_inner_join)

## # A tibble: 1,805 x 40
##   row_id.x subject_id.x hadm_id  admittime  dischtime           deathtime
##      <int>        <int>   <int>     <date>     <date>              <fctr>
## 1       93           91  121205 2177-04-23 2177-05-10 2177-05-10 15:16:00
## 2       94           92  142807 2122-12-13 2123-03-04                  NA
## 3       94           92  142807 2122-12-13 2123-03-04                  NA
## 4       94           92  142807 2122-12-13 2123-03-04                  NA
## 5       94           92  142807 2122-12-13 2123-03-04                  NA
## 6       94           92  142807 2122-12-13 2123-03-04                  NA
## 7       94           92  142807 2122-12-13 2123-03-04                  NA
## # ... with 1,798 more rows, and 34 more variables: admission_type <fctr>,
## #   admission_location <fctr>, discharge_location <fctr>,
## #   insurance <fctr>, language <fctr>, religion <fctr>,
## #   marital_status <fctr>, ethnicity <fctr>, edregtime <fctr>,
## #   edouttime <fctr>, diagnosis <fctr>, hospital_expire_flag <int>,
## #   has_chartevents_data <int>, row_id.y <int>, subject_id.y <int>,
## #   icustay_id <int>, charttime <fctr>, itemid <int>, amount <dbl>,
## #   amountuom <fctr>, rate <dbl>, rateuom <fctr>, storetime <fctr>,
## #   cgid <int>, orderid <int>, linkorderid <int>, stopped <fctr>,
…
Left join admissions and input events table:

  # Left join admissions table and input events (cv) table using the key "hadm_id"
  MIMIC_ADM_INE_left_join <- MIMIC3_ADM %>% 
                                left_join(MIMIC3_INE, by = "hadm_id")
                        
  as.tibble(MIMIC_ADM_INE_left_join)

## # A tibble: 7,179 x 40
##   row_id.x subject_id.x hadm_id  admittime  dischtime           deathtime
##      <int>        <int>   <int>     <date>     <date>              <fctr>
## 1       83           82  110641 2150-06-24 2150-06-29                  NA
## 2       84           83  158569 2142-04-01 2142-04-08                  NA
## 3       85           84  120969 2196-02-02 2196-02-04                  NA
## 4       86           84  166401 2196-04-14 2196-04-17 2196-04-17 13:42:00
## 5       87           85  116630 2162-03-02 2162-03-10                  NA
## 6       88           85  112077 2167-07-25 2167-07-30                  NA
## 7       89           86  190243 2146-04-06 2146-04-10                  NA
## # ... with 7,172 more rows, and 34 more variables: admission_type <fctr>,
## #   admission_location <fctr>, discharge_location <fctr>,
## #   insurance <fctr>, language <fctr>, religion <fctr>,
## #   marital_status <fctr>, ethnicity <fctr>, edregtime <fctr>,
## #   edouttime <fctr>, diagnosis <fctr>, hospital_expire_flag <int>,
## #   has_chartevents_data <int>, row_id.y <int>, subject_id.y <int>,
## #   icustay_id <int>, charttime <fctr>, itemid <int>, amount <dbl>,
## #   amountuom <fctr>, rate <dbl>, rateuom <fctr>, storetime <fctr>,
## #   cgid <int>, orderid <int>, linkorderid <int>, stopped <fctr>,
…
