…
A tibble, or tbl_df, is a modern reimagining of the data frame, keeping what has been proven to be effective, and throwing out what is not. To convert a data frame to a tibble, we can use the function as.tibble(df) where df is a data frame. We will convert the HANES data frame into tibble and use the tibble from now on.

  # Load the tidyverse library
  library(tidyverse)
  # Convert HANES data frame into a tibble and observe it
  HANES_TIB <- as.tibble(HANES)
  HANES_TIB

## # A tibble: 1,112 x 23
##    KEY   GENDER SPAGE AGEGROUP HSQ_1 UCREATININE UALBUMIN    UACR MERCURYU
##  * <fct> <fct>  <int> <fct>    <fct>       <int>    <dbl>   <dbl>    <dbl>
##  1 1340 M         29 20-39    Very         105    0.707 0.00673    0.370
##  2 1344 M         28 20-39    Very          53    1.00  2.00       0.106
##  3 1344 M         27 20-39    Very         314    8.00  3.00       0.487
##  4 1346 M         24 20-39    Exce         105    4.00  4.00       2.21 
##  5 1346 M         30 20-39    Exce         163    3.00  2.00       0.979
##  6 1352 M         26 20-39    Good          150    2.00  1.00       1.48 
##  7 1354 M         31 20-39    Exce          46    2.00  4.00       0.106
##  8 1357 M         32 20-39    Very          36    0.707 0.0196     0.238
##  9 1360 M         34 20-39    Exce         177    4.00  2.00       2.30 
## 10 1362 M         32 20-39    Good          156    3.00  2.00       1.51 
## # ... with 1,102 more rows, and 14 more variables: DX_DBTS <fct>,
## #   A1C <dbl>, CADMIUM <dbl>, LEAD <dbl>, MERCURYTOTALBLOOD <dbl>,
## #   HDL <int>, CHOLESTEROLTOTAL <int>, GLUCOSESI <dbl>,
## #   CREATININESI <dbl>, CREATININE <dbl>, TRIGLYCERIDE <int>,
## #   GLUCOSE <int>, COTININE <dbl>, LDLESTIMATE <int>
…
