…
We will work with the blood hemoglobin variable, A1C.

We will consider people without diabetes as control group, that represents the (sample) random variable \(Y\) and

people with diabetes as disease group - that represents the (sample) random variable \(X\).

  # Extract only the A1C variable for the control group 
  control <- filter(HANES, DX_DBTS == "NO DIAB") %>% select(A1C)
  # and the disease group
  disease <- filter(HANES, DX_DBTS == "DIAB") %>% select(A1C)
  as.tibble(control)
  as.tibble(disease)

## # A tibble: 977 x 1
##      A1C
##    <dbl>
##  1   5.0
##  2   5.2
##  3   4.8
##  4   5.1
##  5   4.3
##  6   5.2
##  7   4.8
##  8   5.2
##  9   4.8
## 10   5.2
## # ... with 967 more rows

## # A tibble: 104 x 1
##      A1C
##    <dbl>
##  1   8.3
##  2   5.3
##  3   8.7
##  4   5.1
##  5  10.3
##  6   6.1
##  7  10.3
##  8   7.7
##  9   6.7
## 10   7.5
## # ... with 94 more rows
…
  insurance_marital.status
  # Find the number of people with medicaid
  folks_with_medicaid <- MIMIC3_ADM %>% 
    filter(insurance == "Medicaid") %>% count() 
  folks_with_medicaid$n
  # Find the ethinicities for the separated Medicaid group
  MIMIC3_ADM %>% 
    filter(insurance =="Medicaid" & marital_status == "SEPARATED") %>% 
    group_by(ethnicity) %>% count()
  # Find the ethinicities for the separated Government group
  MIMIC3_ADM %>% 
    filter(insurance =="Government" & marital_status == "SEPARATED") %>% 
    group_by(ethnicity) %>% count()

## # A tibble: 34 x 3
## # Groups:   insurance, marital_status [34]
##     insurance marital_status     n
##        <fctr>         <fctr> <int>
##  1 Government       DIVORCED    13
##  2 Government        MARRIED    33
##  3 Government      SEPARATED     3
##  4 Government         SINGLE    93
##  5 Government        WIDOWED     8
##  6 Government             NA    31
##  7   Medicaid       DIVORCED    38
##  8   Medicaid        MARRIED   100
##  9   Medicaid      SEPARATED    12
## 10   Medicaid         SINGLE   309
## # ... with 24 more rows
…
    group_by(diagnosis, ethnicity) %>% count() %>% arrange(desc(n))
  # Display the table
  diagnosis_ethnicity
  # Select only the required ethinicity
  MIMIC3_ADM %>% 
    filter((ethnicity == "BLACK/AFRICAN AMERICAN" | ethnicity == "WHITE") & 
             diagnosis == "DIABETIC KETOACIDOSIS") %>% 
              group_by(ethnicity,diagnosis) %>% count()
  # Find the count of the population
  black_pop <- MIMIC3_ADM %>% filter(ethnicity == "BLACK/AFRICAN AMERICAN") %>% count()
  white_pop <- MIMIC3_ADM %>% filter(ethnicity == "WHITE") %>% count()
  black_pop$n
  white_pop$n

## # A tibble: 2,861 x 3
## # Groups:   diagnosis, ethnicity [2,861]
##                                                    diagnosis
##                                                       <fctr>
##  1                                                   NEWBORN
##  2                                                 PNEUMONIA
##  3                                                    SEPSIS
##  4                                                   NEWBORN
##  5                                                   NEWBORN
##  6 CORONARY ARTERY DISEASE\CORONARY ARTERY BYPASS GRAFT /SDA
##  7                                   INTRACRANIAL HEMORRHAGE
##  8                                   CORONARY ARTERY DISEASE
##  9                                    GASTROINTESTINAL BLEED
## 10                                     ALTERED MENTAL STATUS
## # ... with 2,851 more rows, and 2 more variables: ethnicity <fctr>,
## #   n <int>
…
We saw that there is a good correlation between LDLESTIMATE and CHOLESTEROLTOTAL suggesting there is possibly a linear relationship between them.

Assuming there is a linear relationship, is it possible to predict the values of CHOLESTEROLTOTAL when we have the values for LDLESTIMATE?

We will try to do this in what follows.

First we will get these two variables from the data set.

  # Get the LDLESTIMATE and CHOLESTEROLTOTAL variables from the HANES data set
  mydata <- HANES %>% select(LDLESTIMATE,CHOLESTEROLTOTAL)
  # Take 30 random points (subsample) for illustration purposes
  mysample <- mydata[sample(1:nrow(mydata), 30, replace=FALSE),]
  as.tibble(mysample)

## # A tibble: 30 x 2
##    LDLESTIMATE CHOLESTEROLTOTAL
##  *       <int>            <int>
##  1         159              223
##  2         147              236
##  3         111              184
##  4          80              161
##  5         118              197
##  6         109              200
##  7          88              141
##  8         104              207
##  9         182              255
## 10          34              168
## # ... with 20 more rows
…
This is a good thing, because, one of the underlying assumptions in linear regression is that the relationship between the response and predictor variables is linear and additive.

Now lets do a box plot to determine if there are any major outliers.

  # We first gather the two variables to make a box plot in one plot
  LDL_CHOL_gather <- mysample %>% 
    gather(`LDLESTIMATE`, `CHOLESTEROLTOTAL`, key = "Variables", value = "Values")
  # View as a tibble
  as.tibble(LDL_CHOL_gather)
  # Make a box plot
  ggplot(LDL_CHOL_gather, aes(Variables, Values)) + 
    geom_boxplot(fill='cyan', color="darkred", alpha = 0.5) 

## # A tibble: 60 x 2
##      Variables Values
##          <chr>  <int>
##  1 LDLESTIMATE    159
##  2 LDLESTIMATE    147
##  3 LDLESTIMATE    111
##  4 LDLESTIMATE     80
##  5 LDLESTIMATE    118
##  6 LDLESTIMATE    109
##  7 LDLESTIMATE     88
##  8 LDLESTIMATE    104
##  9 LDLESTIMATE    182
## 10 LDLESTIMATE     34
## # ... with 50 more rows
…
