…
  insurance_marital.status
  # Find the number of people with medicaid
  folks_with_medicaid <- MIMIC3_ADM %>% 
    filter(insurance == "Medicaid") %>% count() 
  folks_with_medicaid$n
  # Find the ethinicities for the separated Medicaid group
  MIMIC3_ADM %>% 
    filter(insurance =="Medicaid" & marital_status == "SEPARATED") %>% 
    group_by(ethnicity) %>% count()
  # Find the ethinicities for the separated Government group
  MIMIC3_ADM %>% 
    filter(insurance =="Government" & marital_status == "SEPARATED") %>% 
    group_by(ethnicity) %>% count()

## # A tibble: 34 x 3
## # Groups:   insurance, marital_status [34]
##     insurance marital_status     n
##        <fctr>         <fctr> <int>
##  1 Government       DIVORCED    13
##  2 Government        MARRIED    33
##  3 Government      SEPARATED     3
##  4 Government         SINGLE    93
##  5 Government        WIDOWED     8
##  6 Government             NA    31
##  7   Medicaid       DIVORCED    38
##  8   Medicaid        MARRIED   100
##  9   Medicaid      SEPARATED    12
## 10   Medicaid         SINGLE   309
## # ... with 24 more rows
…
    group_by(diagnosis, ethnicity) %>% count() %>% arrange(desc(n))
  # Display the table
  diagnosis_ethnicity
  # Select only the required ethinicity
  MIMIC3_ADM %>% 
    filter((ethnicity == "BLACK/AFRICAN AMERICAN" | ethnicity == "WHITE") & 
             diagnosis == "DIABETIC KETOACIDOSIS") %>% 
              group_by(ethnicity,diagnosis) %>% count()
  # Find the count of the population
  black_pop <- MIMIC3_ADM %>% filter(ethnicity == "BLACK/AFRICAN AMERICAN") %>% count()
  white_pop <- MIMIC3_ADM %>% filter(ethnicity == "WHITE") %>% count()
  black_pop$n
  white_pop$n

## # A tibble: 2,861 x 3
## # Groups:   diagnosis, ethnicity [2,861]
##                                                    diagnosis
##                                                       <fctr>
##  1                                                   NEWBORN
##  2                                                 PNEUMONIA
##  3                                                    SEPSIS
##  4                                                   NEWBORN
##  5                                                   NEWBORN
##  6 CORONARY ARTERY DISEASE\CORONARY ARTERY BYPASS GRAFT /SDA
##  7                                   INTRACRANIAL HEMORRHAGE
##  8                                   CORONARY ARTERY DISEASE
##  9                                    GASTROINTESTINAL BLEED
## 10                                     ALTERED MENTAL STATUS
## # ... with 2,851 more rows, and 2 more variables: ethnicity <fctr>,
## #   n <int>
…
The scatter plot along with the smoothing line above suggests a linearly increasing relationship between LDL and Cholesterol variables. This is a good thing, because, one of the underlying assumptions in linear regression is that the relationship between the response and predictor variables is linear and additive.

Now lets do a box plot to determine if there are any major outliers.

  # We first gather the two variables to make a box plot in one plot
  LDL_CHOL_gather <- mysample %>% 
    gather(`LDLESTIMATE`, `CHOLESTEROLTOTAL`, key = "Variables", value = "Values")
  # View as a tibble
  as.tibble(LDL_CHOL_gather)
  # Make a box plot
  ggplot(LDL_CHOL_gather, aes(Variables, Values)) + 
    geom_boxplot(fill='cyan', color="darkred", alpha = 0.5) 

## # A tibble: 60 x 2
##      Variables Values
##          <chr>  <int>
##  1 LDLESTIMATE    246
##  2 LDLESTIMATE    194
##  3 LDLESTIMATE     68
##  4 LDLESTIMATE     85
##  5 LDLESTIMATE     53
##  6 LDLESTIMATE    174
##  7 LDLESTIMATE    120
##  8 LDLESTIMATE     88
##  9 LDLESTIMATE    133
## 10 LDLESTIMATE    196
## # ... with 50 more rows
…
