…
We will see more about tibbles in the wrangle section but we will make a short note of it now.

A tibble, or tbl_df, is a modern reimagining of the data frame, keeping what time has proven to be effective, and throwing out what is not. Tibbles are data.frames that are lazy and surly: they do less (i.e.they dont change variable names or types, and dont do partial matching) and complain more (e.g.when a variable does not exist). This forces one to confront problems earlier, typically leading to cleaner, more expressive code. Tibbles also have an enhanced print method() which makes them easier to use with large datasets containing complex objects.

To convert a data frame to a tibble, we can use the function as.tibble(df) where df is a data frame. We will convert the HANES data frame into tibble and use the tibble from now on.

  # Load the tidyverse library
  library(tidyverse)
  # Convert HANES data frame into a tibble and observe it
  HANES_TIB <- as.tibble(HANES)
  HANES_TIB

## # A tibble: 1,112 x 23
##        KEY GENDER SPAGE AGEGROUP     HSQ_1 UCREATININE UALBUMIN
##  *  <fctr> <fctr> <int>   <fctr>    <fctr>       <int>    <dbl>
##  1 134040A      M    29    20-39 Very Good         105    0.707
##  2 134460B      M    28    20-39 Very Good          53    1.000
##  3 134490A      M    27    20-39 Very Good         314    8.000
##  4 134620A      M    24    20-39 Excellent         105    4.000
##  5 134670A      M    30    20-39 Excellent         163    3.000
##  6 135210B      M    26    20-39      Good         150    2.000
##  7 135420A      M    31    20-39 Excellent          46    2.000
##  8 135740A      M    32    20-39 Very Good          36    0.707
##  9 136020A      M    34    20-39 Excellent         177    4.000
## 10 136250A      M    32    20-39      Good         156    3.000
## # ... with 1,102 more rows, and 16 more variables: UACR <dbl>,
## #   MERCURYU <dbl>, DX_DBTS <fctr>, A1C <dbl>, CADMIUM <dbl>, LEAD <dbl>,
## #   MERCURYTOTALBLOOD <dbl>, HDL <int>, CHOLESTEROLTOTAL <int>,
## #   GLUCOSESI <dbl>, CREATININESI <dbl>, CREATININE <dbl>,
## #   TRIGLYCERIDE <int>, GLUCOSE <int>, COTININE <dbl>, LDLESTIMATE <int>
…
High content of mercury (more than median) in their urine

How many patients have a missing UACR value in the HANES dataset?

The arrange() function

arrange() works similar to filter function except that instead of selecting rows, it changes their order. It takes a data frame and a set of column names (or more complicated expressions) to order by. If we provide more than one column name, each additional column will be used to break ties in the values of preceding columns:

  # Arrange the data frame arranging GENDER and AGE with descending order of the variable UCREATININE
  a <- arrange(HANES, GENDER, SPAGE, desc(UCREATININE))
  atib <- as.tibble(a)
  atib

## # A tibble: 1,112 x 23
##        KEY GENDER SPAGE AGEGROUP     HSQ_1 UCREATININE UALBUMIN
##     <fctr> <fctr> <int>   <fctr>    <fctr>       <int>    <dbl>
##  1 134310B      M    20    20-39 Excellent         612   26.000
##  2 550030A      M    20    20-39 Very Good         217   12.000
##  3 220620A      M    20    20-39 Very Good         198   15.000
##  4 333190A      M    20    20-39      Good         153    5.000
##  5 443500A      M    20    20-39 Very Good         148    1.000
##  6 140330B      M    20    20-39 Very Good         132    3.000
##  7 447750A      M    20    20-39 Excellent         131    3.000
##  8 223980B      M    21    20-39 Excellent         269    1.000
##  9 223930B      M    21    20-39 Very Good         205    0.707
## 10 328780B      M    21    20-39 Very Good         144   25.000
## # ... with 1,102 more rows, and 16 more variables: UACR <dbl>,
## #   MERCURYU <dbl>, DX_DBTS <fctr>, A1C <dbl>, CADMIUM <dbl>, LEAD <dbl>,
## #   MERCURYTOTALBLOOD <dbl>, HDL <int>, CHOLESTEROLTOTAL <int>,
## #   GLUCOSESI <dbl>, CREATININESI <dbl>, CREATININE <dbl>,
## #   TRIGLYCERIDE <int>, GLUCOSE <int>, COTININE <dbl>, LDLESTIMATE <int>
…
 Classwork/Homework:

Sort HANES to find patients with highest cholesterol. Do the same to find patients with least cholesterol.

Sort HANES to find pateints with high A1C.

The select() function

The orginal HANES data set has \(704\) variables/columns. It is common for real world data sets to be large and we may want to quickly zoom into the variables of interest. The select() function allows us to do that. Here is a code to select only A1C and GLUCOSE variables:

  # Select only the A1C and GLUCOSE variables from the HANES data
  s <- select(HANES, A1C, GLUCOSE)
  as.tibble(s)

## # A tibble: 1,112 x 2
##      A1C GLUCOSE
##  * <dbl>   <int>
##  1   5.0      83
##  2   5.2      86
##  3   4.8      93
##  4   5.1      90
##  5   4.3      92
##  6   5.2      85
##  7   4.8      72
##  8   5.2      87
##  9   4.8      96
## 10   5.2      92
## # ... with 1,102 more rows

An useful helper arument is the everything() function that allows keeping all the variables and pushing the variables of interest in the front.

  # Push the A1C and GLUCOSE variables to the front keeping everything
  s <- select(HANES, A1C, GLUCOSE, everything())
  as.tibble(s)

## # A tibble: 1,112 x 23
##      A1C GLUCOSE     KEY GENDER SPAGE AGEGROUP     HSQ_1 UCREATININE
##  * <dbl>   <int>  <fctr> <fctr> <int>   <fctr>    <fctr>       <int>
##  1   5.0      83 134040A      M    29    20-39 Very Good         105
##  2   5.2      86 134460B      M    28    20-39 Very Good          53
##  3   4.8      93 134490A      M    27    20-39 Very Good         314
##  4   5.1      90 134620A      M    24    20-39 Excellent         105
##  5   4.3      92 134670A      M    30    20-39 Excellent         163
##  6   5.2      85 135210B      M    26    20-39      Good         150
##  7   4.8      72 135420A      M    31    20-39 Excellent          46
##  8   5.2      87 135740A      M    32    20-39 Very Good          36
##  9   4.8      96 136020A      M    34    20-39 Excellent         177
## 10   5.2      92 136250A      M    32    20-39      Good         156
## # ... with 1,102 more rows, and 15 more variables: UALBUMIN <dbl>,
## #   UACR <dbl>, MERCURYU <dbl>, DX_DBTS <fctr>, CADMIUM <dbl>, LEAD <dbl>,
## #   MERCURYTOTALBLOOD <dbl>, HDL <int>, CHOLESTEROLTOTAL <int>,
## #   GLUCOSESI <dbl>, CREATININESI <dbl>, CREATININE <dbl>,
## #   TRIGLYCERIDE <int>, COTININE <dbl>, LDLESTIMATE <int>

The mutate() function

We can add new columns to the data set using the mutate() function. For example, this code makes a new variable that is the sum of HDL and LDL estimate, stores it in a variable H_L to find the ratio between cholesterol and this new variable, H_L:

   # Select only the variables LDLESTIMATE,HDL,CHOLESTEROLTOTAL,TRIGLYCERIDE
   HANES_sub <- select(HANES,LDLESTIMATE,HDL,CHOLESTEROLTOTAL,TRIGLYCERIDE)
   # Add a new variable H_L that is a sum of HDL and LDL
   m <- mutate(HANES_sub, H_L = HDL+LDLESTIMATE, ratio=CHOLESTEROLTOTAL/H_L)
   as.tibble(m)

## # A tibble: 1,112 x 6
##    LDLESTIMATE   HDL CHOLESTEROLTOTAL TRIGLYCERIDE   H_L    ratio
##          <int> <int>            <int>        <int> <int>    <dbl>
##  1         111    42              184          156   153 1.202614
##  2          97    51              157           43   148 1.060811
##  3          81    42              145          108   123 1.178862
##  4         132    61              206           65   193 1.067358
##  5          58    52              120           51   110 1.090909
##  6          99    50              155           29   149 1.040268
##  7          93    57              156           31   150 1.040000
##  8         135    56              235          220   191 1.230366
##  9          98    42              156           82   140 1.114286
## 10          69    44              120           35   113 1.061947
## # ... with 1,102 more rows

The transmute() function retains only the created variables.

   # Select only the variables LDLESTIMATE,HDL,CHOLESTEROLTOTAL,TRIGLYCERIDE
   HANES_sub <- select(HANES,LDLESTIMATE,HDL,CHOLESTEROLTOTAL,TRIGLYCERIDE)
   # Add a new variable H_L that is a sum of HDL and LDL
   m <- transmute(HANES_sub, H_L = HDL+LDLESTIMATE, ratio=CHOLESTEROLTOTAL/H_L)
   as.tibble(m)

## # A tibble: 1,112 x 2
##      H_L    ratio
##    <int>    <dbl>
##  1   153 1.202614
##  2   148 1.060811
##  3   123 1.178862
##  4   193 1.067358
##  5   110 1.090909
##  6   149 1.040268
##  7   150 1.040000
##  8   191 1.230366
##  9   140 1.114286
## 10   113 1.061947
## # ... with 1,102 more rows
…
Without removing NA

  # Group by AGE and GENDER and
  HANES_with_NA %>% 
  group_by(SPAGE,GENDER) %>% 
  # summarize the mean of cholesterol for each group without removing NA
  summarise(mean = mean(CHOLESTEROLTOTAL))

## # A tibble: 143 x 3
## # Groups:   SPAGE [?]
##    SPAGE GENDER     mean
##    <int>  <int>    <dbl>
##  1    20      1       NA
##  2    20      2       NA
##  3    21      1       NA
##  4    21      2       NA
##  5    22      1 153.4286
##  6    22      2       NA
##  7    23      1       NA
##  8    23      2       NA
##  9    24      1       NA
## 10    24      2       NA
## # ... with 133 more rows

Removing NA

  # Group by AGE and GENDER and 
  HANES_with_NA %>% 
  group_by(SPAGE,GENDER) %>% 
  # summarize the mean of cholesterol for each group by removing NA
  summarise(mean = mean(CHOLESTEROLTOTAL, na.rm=TRUE))

## # A tibble: 143 x 3
## # Groups:   SPAGE [?]
##    SPAGE GENDER     mean
##    <int>  <int>    <dbl>
##  1    20      1 165.1250
##  2    20      2 157.3333
##  3    21      1 151.8000
##  4    21      2 154.2222
##  5    22      1 153.4286
##  6    22      2 167.2222
##  7    23      1 165.9286
##  8    23      2 169.7000
##  9    24      1 169.4286
## 10    24      2 173.9500
## # ... with 133 more rows

We can also filter through the missing values first -

  # Filter the data and get no NA values 
  HANES_with_NA %>% filter(!is.na(CHOLESTEROLTOTAL)) %>%
  # group by AGE and GENDER 
  group_by(SPAGE,GENDER) %>% 
  # and find the mean of cholesterol for each group
  summarise(mean = mean(CHOLESTEROLTOTAL, na.rm=TRUE))

## # A tibble: 140 x 3
## # Groups:   SPAGE [?]
##    SPAGE GENDER     mean
##    <int>  <int>    <dbl>
##  1    20      1 165.1250
##  2    20      2 157.3333
##  3    21      1 151.8000
##  4    21      2 154.2222
##  5    22      1 153.4286
##  6    22      2 167.2222
##  7    23      1 165.9286
##  8    23      2 169.7000
##  9    24      1 169.4286
## 10    24      2 173.9500
## # ... with 130 more rows
…
Find age group (not the AGEGROUP variable) greater than a threshold (say, \(30\)) and standardise A1C to compute per group metric.

  # Group by SPAGE and filter groups that contain more than 30 individuals
  AG_GT_30 <- HANES %>% group_by(SPAGE) %>%
                        filter(n() > 30)

  # Filter for all records with A1C variable > 0 to avoid NaNs,
  AG_GT_30 %>% filter(A1C > 0) %>%
  # standardise A1C dividing by the total sum of A1C in the group
  mutate(standardised_A1C = A1C / sum(A1C)) %>%
  # and seelct only A1C and standardised A1C
  select(A1C,standardised_A1C)

## # A tibble: 226 x 3
## # Groups:   SPAGE [7]
##    SPAGE   A1C standardised_A1C
##    <int> <dbl>            <dbl>
##  1    29   5.0       0.03203075
##  2    28   5.2       0.03121248
##  3    27   4.8       0.03009404
##  4    24   5.1       0.03240152
##  5    30   4.3       0.02426637
##  6    30   5.3       0.02990971
##  7    28   4.7       0.02821128
##  8    30   4.7       0.02652370
##  9    23   4.9       0.02909739
## 10    30   5.2       0.02934537
## # ... with 216 more rows
…
