…
We can now see the tibble doesnt give any errors

  # Load the tidyverse library
  library(tidyverse)
  # Convert df.uniq data frame into a tibble and observe it
  df_TIB <- as.tibble(df.uniq)
  df_TIB

## # A tibble: 52 x 6,646
##    PID    Group    DPM1 FUCA2  GCLC LAS1L SEMA3F CYP51A1 KRIT1   BAD  LAP3
##    <chr>  <chr>   <dbl> <dbl> <dbl> <dbl>  <dbl>   <dbl> <dbl> <dbl> <dbl>
##  1 X184A1 Normal  6.06  4.47  4.47  5.27   6.05    6.24  4.17  6.55  5.19
##  2 X184B5 Normal  5.25  5.39  6     4.27   7.31    5.26  3.51  7.49  4.54
##  3 X21MT1 Basal    5.15  5.28  5.77  6.58   3.99    5.67  3.86  5.69  4.64
##  4 X21NT  Basal    5.36  5.82  5.76  5.54   5.93    6.11  5.12  5     4.64
##  5 X21PT  Basal    5.22  5.75  5.76  5.57   5.98    5.77  4.75  4.9   4.81
##  6 X600M Luminal  5.32  6.11  5.78  4.93   4.06    6.74  4.8   4.2   5.13
##  7 AU565  Luminal  5.3   4.8   4.01  6.16   7.53    5.15  3.56  6.69  4.96
##  8 BT474  Luminal  6.64  4.47  5.14  5.36   4.7     6.14  4.14  5.81  4.72
##  9 BT483  Luminal  5.6   4.99  5.11  5.1    6.69    5.27  4.47  5.39  5.8 
## 10 BT549  Claudi  6.61  6.94  3.63  6.16   3.3     3.88  3.14  5.94  5.57
## # ... with 42 more rows, and 6,635 more variables: CD99 <dbl>,
## #   MAD1L1 <dbl>, LASP1 <dbl>, SNX11 <dbl>, TMEM176A <dbl>, M6PR <dbl>,
## #   ICA1 <dbl>, DBNDD1 <dbl>, CFLAR <dbl>, TFPI <dbl>, RBM5 <dbl>,
## #   SLC7A2 <dbl>, ARF5 <dbl>, POLDIP2 <dbl>, PLXND1 <dbl>, AK2 <dbl>,
## #   FKBP4 <dbl>, KDM1A <dbl>, RBM6 <dbl>, RECQL <dbl>, ARHGAP33 <dbl>,
## #   NDUFAB1 <dbl>, SLC25A13 <dbl>, CDC27 <dbl>, HCCS <dbl>, DVL2 <dbl>,
## #   PRSS22 <dbl>, UPF1 <dbl>, SLC25A5 <dbl>, POLR2J <dbl>, LIG3 <dbl>,
## #   CIAPIN1 <dbl>, SPPL2B <dbl>, WDR54 <dbl>, KMT2E <dbl>, RHBDD2 <dbl>,
## #   PDK2 <dbl>, ITGA3 <dbl>, LAMP2 <dbl>, GDE1 <dbl>, C19orf60 <dbl>,
…
The select() function

The orginal RNA-seq data set has \(6917\) variables/rows. It is common for real world data sets to be large and we may want to quickly zoom into the variables of interest. Also, as the above homework shows, once we arrange the data that has tons of variables, it is difficult to verify the results. The select() function allows us to do that. Here is a code to select only the ATM variable:

  # Arrange df.uniq to find highest ATM expression
  a <- arrange(df.uniq, Group, desc(ATM))
  # Select only the PID, Group and ATM genes from the above data
  s <- select(a, PID, Group, ATM)
  as.tibble(s)

  # Select only the PID, Group and TP53 variables
  s <- select(df.uniq, PID, Group, TP53)
  as.tibble(s)

## # A tibble: 52 x 3
##    PID     Group        TP53
##    <chr>   <chr>       <dbl>
##  1 X184A1  Normal-like  5.96
##  2 X184B5  Normal-like  5.83
##  3 X21MT1  Basal        4.78
##  4 X21NT   Basal        4.78
##  5 X21PT   Basal        4.74
##  6 X600MPE Luminal      1.78
##  7 AU565   Luminal      5.17
##  8 BT474   Luminal      5.73
##  9 BT483   Luminal      5.23
## 10 BT549   Claudin-low  8.04
## # ... with 42 more rows

An useful helper arument is the everything() function that allows keeping all the variables and pushing the variables of interest in the front.

  # Push the AGEGROUP and CHEMO variables to the front keeping everything
  s <- select(df.uniq, PID, Group, AGEGROUP, CHEMO, everything())
  as.tibble(s)

## # A tibble: 52 x 6,648
##    PID   Group AGEGROUP CHEMO  DPM1 FUCA2  GCLC LAS1L SEMA3F CYP51A1 KRIT1
##    <chr> <chr> <chr>    <chr> <dbl> <dbl> <dbl> <dbl>  <dbl>   <dbl> <dbl>
##  1 X184 Norm 15-30    Y      6.06  4.47  4.47  5.27   6.05    6.24  4.17
##  2 X184 Norm 15-30    Y      5.25  5.39  6     4.27   7.31    5.26  3.51
##  3 X21M Basal 41-50    N      5.15  5.28  5.77  6.58   3.99    5.67  3.86
##  4 X21NT Basal 61+      N      5.36  5.82  5.76  5.54   5.93    6.11  5.12
##  5 X21PT Basal 51-60    N      5.22  5.75  5.76  5.57   5.98    5.77  4.75
##  6 X600 Lumi 31-40    Y      5.32  6.11  5.78  4.93   4.06    6.74  4.8 
##  7 AU565 Lumi 31-40    Y      5.3   4.8   4.01  6.16   7.53    5.15  3.56
##  8 BT474 Lumi 41-50    Y      6.64  4.47  5.14  5.36   4.7     6.14  4.14
##  9 BT483 Lumi 61+      N      5.6   4.99  5.11  5.1    6.69    5.27  4.47
## 10 BT549 Clau 51-60    N      6.61  6.94  3.63  6.16   3.3     3.88  3.14
## # ... with 42 more rows, and 6,637 more variables: BAD <dbl>, LAP3 <dbl>,
## #   CD99 <dbl>, MAD1L1 <dbl>, LASP1 <dbl>, SNX11 <dbl>, TMEM176A <dbl>,
## #   M6PR <dbl>, ICA1 <dbl>, DBNDD1 <dbl>, CFLAR <dbl>, TFPI <dbl>,
## #   RBM5 <dbl>, SLC7A2 <dbl>, ARF5 <dbl>, POLDIP2 <dbl>, PLXND1 <dbl>,
## #   AK2 <dbl>, FKBP4 <dbl>, KDM1A <dbl>, RBM6 <dbl>, RECQL <dbl>,
## #   ARHGAP33 <dbl>, NDUFAB1 <dbl>, SLC25A13 <dbl>, CDC27 <dbl>,
## #   HCCS <dbl>, DVL2 <dbl>, PRSS22 <dbl>, UPF1 <dbl>, SLC25A5 <dbl>,
## #   POLR2J <dbl>, LIG3 <dbl>, CIAPIN1 <dbl>, SPPL2B <dbl>, WDR54 <dbl>,
## #   KMT2E <dbl>, RHBDD2 <dbl>, PDK2 <dbl>, ITGA3 <dbl>, LAMP2 <dbl>,
…
The mutate() function

We can add new columns to the data set using the mutate() function. For example, this code makes a new variable that is the ratio of TP53 and ATM estimate, stores it in a variable TP53_ATM:

   # Select only the variables PID, Group, TP53 and ATM variables
   df_sub <- select(df.uniq,PID,Group,TP53,ATM)
   # Add a new variable TP53_ATM that is a ratio of gene expression in TP53 and ATM
   m <- mutate(df_sub, TP53_ATM = TP53/ATM)
   as.tibble(m)

## # A tibble: 52 x 5
##    PID     Group        TP53   ATM TP53_ATM
##    <chr>   <chr>       <dbl> <dbl>    <dbl>
##  1 X184A1  Normal-like  5.96  2.71    2.20 
##  2 X184B5  Normal-like  5.83  1.8     3.24 
##  3 X21MT1  Basal        4.78  1.21    3.95 
##  4 X21NT   Basal        4.78  1.64    2.91 
##  5 X21PT   Basal        4.74  1.77    2.68 
##  6 X600MPE Luminal      1.78  3.1     0.574
##  7 AU565   Luminal      5.17  2.05    2.52 
##  8 BT474   Luminal      5.73  2.15    2.67 
##  9 BT483   Luminal      5.23  1.88    2.78 
## 10 BT549   Claudin-low  8.04  3.12    2.58 
## # ... with 42 more rows

The transmute() function retains only the created variables.

   # Select only the variables PID, Group, TP53 and ATM variables
   df_sub <- select(df.uniq,PID,Group,TP53,ATM)
   # Add a new variable TP53_ATM that is a ratio of gene expression in TP53 and ATM
   m <- transmute(df_sub, TP53_ATM = TP53/ATM)
   as.tibble(m)

## # A tibble: 52 x 1
##    TP53_ATM
##       <dbl>
##  1    2.20 
##  2    3.24 
##  3    3.95 
##  4    2.91 
##  5    2.68 
##  6    0.574
##  7    2.52 
##  8    2.67 
##  9    2.78 
## 10    2.58 
## # ... with 42 more rows
…
Without removing NA

  # Group by cell line and transcriptional subtype and
  cell_line_data %>% 
  group_by(Cell.line,Transcriptional.subtype) %>% 
  # summarize the mean of cholesterol for each group without removing NA
  summarise(mean = mean(Doxorubicin))

## # A tibble: 84 x 3
## # Groups:   Cell.line [?]
##    Cell.line Transcriptional.subtype  mean
##    <fct>     <fct>                   <dbl>
##  1 184A1     Normal-like              6.95
##  2 184B5     Normal-like             NA   
##  3 21MT1     Basal                   NA   
##  4 21MT2     Basal                   NA   
##  5 21NT      Basal                   NA   
##  6 21PT      Basal                   NA   
##  7 600MPE    Luminal                  6.69
##  8 AU565     Luminal                  7.03
##  9 BT20      Basal                   NA   
## 10 BT474     Luminal                  6.51
## # ... with 74 more rows

Removing NA

  # Group by cell line and transcriptional subtype and
  cell_line_data %>% 
  group_by(Cell.line,Transcriptional.subtype) %>% 
  # summarize the mean of cholesterol for each group without removing NA
  summarise(mean = mean(Doxorubicin, na.rm = TRUE)) %>%
  na.omit()

## # A tibble: 52 x 3
## # Groups:   Cell.line [52]
##    Cell.line Transcriptional.subtype  mean
##    <fct>     <fct>                   <dbl>
##  1 184A1     Normal-like              6.95
##  2 600MPE    Luminal                  6.69
##  3 AU565     Luminal                  7.03
##  4 BT474     Luminal                  6.51
##  5 BT483     Luminal                  7   
##  6 BT549     Claudin-low              6.94
##  7 CAMA1     Luminal                  6.58
##  8 HBL100    Claudin-low              7.37
##  9 HCC1143   Basal                    6.6 
## 10 HCC1187   Basal                    7.3 
## # ... with 42 more rows

We can also filter through the missing values first -

  # Filter the data and get no NA values 
  cell_line_data %>% filter(!is.na(Doxorubicin)) %>%
  # group by Cell.line and Transcriptional subtype 
  group_by(Cell.line,Transcriptional.subtype) %>% 
  # and find the mean of Doxorubicin for each group
  summarise(mean = mean(Doxorubicin, na.rm=TRUE))

## # A tibble: 52 x 3
## # Groups:   Cell.line [?]
##    Cell.line Transcriptional.subtype  mean
##    <fct>     <fct>                   <dbl>
##  1 184A1     Normal-like              6.95
##  2 600MPE    Luminal                  6.69
##  3 AU565     Luminal                  7.03
##  4 BT474     Luminal                  6.51
##  5 BT483     Luminal                  7   
##  6 BT549     Claudin-low              6.94
##  7 CAMA1     Luminal                  6.58
##  8 HBL100    Claudin-low              7.37
##  9 HCC1143   Basal                    6.6 
## 10 HCC1187   Basal                    7.3 
## # ... with 42 more rows
…
